%YAML 1.1
%TAG !u! tag:unity3d.com,2011:
--- !u!114 &11400000
MonoBehaviour:
  m_ObjectHideFlags: 0
  m_CorrespondingSourceObject: {fileID: 0}
  m_PrefabInternal: {fileID: 0}
  m_GameObject: {fileID: 0}
  m_Enabled: 1
  m_EditorHideFlags: 0
  m_Script: {fileID: 11500000, guid: c503c009254fc7a4a9d8fcf6d8a17cfa, type: 3}
  m_Name: Imp
  m_EditorClassIdentifier: 
  enemyTypeTag: Imp
  mutation: {fileID: 0}
  attackDistance: 0
  durationOfPush: 0
  stoppingDistanceToPlayer: 0
  MovementSpeed: 0
  stoppingDistanceToPatrolPoint: 0
  healthPoints: 11
  dps: -5
  secondsBetweenShots: 4
  penaltyMultiplierForGettingShotByEnemy: 7
  bonusMultiplierForHittingEnemyOnDeath: 7
  died:
  - {fileID: 8300000, guid: 03eb7d8ac18c68e4484bf643ee59ba06, type: 3}
  shot:
  - {fileID: 8300000, guid: e3f5b9d0073e8514bb73ffbce7dd11b0, type: 3}
